Lab 1: Meet the Toolkit
…
Rows: 59284 Columns: 5
── Column specification ────────────────────────────────────────────────────────
Delimiter: ","
chr (2): country, issue
dbl (3): year, votes, percent_yes

ℹ Use `spec()` to retrieve the full column specification for this data.
ℹ Specify the column types or set `show_col_types = FALSE` to quiet this message.

Advice: do not make R print out full datasets (like in the chunk below).

un_votes # don't do this

# A tibble: 59,284 × 5
   country      year issue                        votes percent_yes
   <chr>       <dbl> <chr>                        <dbl>       <dbl>
 1 Afghanistan  1946 Colonialism                      5      0.8   
 2 Afghanistan  1946 Economic development             6      0.667 
 3 Afghanistan  1946 Human rights                     1      1     
 4 Afghanistan  1947 Colonialism                      8      0.5   
 5 Afghanistan  1947 Economic development             2      0.5   
 6 Afghanistan  1947 Palestinian conflict             7      0.857 
 7 Afghanistan  1948 Colonialism                     12      0.0833
 8 Afghanistan  1948 Arms control and disarmament     9      1     
 9 Afghanistan  1948 Economic development             8      0.75  
10 Afghanistan  1948 Human rights                     6      0.833 
# ℹ 59,274 more rows
…
