Lab 6: Regression for Describing
…
What is the baseline category here? What do the coefficients represent?

Crucially, regression is about average trends in the data. Thus, when interpreting regression coefficients, it is important to indicate this fact:

A one unit increase in predictor is associated with, on average, coefficient for predictor change in the dependent variable.

Predictions with New Data

Let’s go back to our model with beauty and course evaluations and generate some fitted values (along with other stats). augment() provides us nicely with the fitted values, i.e. predictions for the data points existing in our dataset.

broom::augment(m_eval1)

# A tibble: 463 × 8
    eval beauty .fitted   .resid    .hat .sigma     .cooksd .std.resid
   <dbl>  <dbl>   <dbl>    <dbl>   <dbl>  <dbl>       <dbl>      <dbl>
 1   4.5   3       3.90  0.601   0.00403  0.545 0.00247         1.10  
 2   4.4   7.33    4.20  0.198   0.0100   0.546 0.000674        0.365 
 3   4.2   5.5     4.07  0.126   0.00325  0.546 0.0000873       0.232 
 4   3.4   4       3.97 -0.569   0.00232  0.545 0.00127        -1.05  
 5   4.5   4.67    4.02  0.484   0.00222  0.545 0.000879        0.890 
 6   4     4.33    3.99  0.00765 0.00217  0.546 0.000000214     0.0140
 7   3.8   4.83    4.03 -0.227   0.00232  0.546 0.000203       -0.418 
 8   3.4   4       3.97 -0.569   0.00232  0.545 0.00127        -1.05  
 9   3.8   4.33    3.99 -0.192   0.00217  0.546 0.000135       -0.353 
10   4.3   4.33    3.99  0.308   0.00217  0.545 0.000347        0.565 
# ℹ 453 more rows
…
There are multiple interpretations for this measure, with some researchers recommending to be suspicious of observations with \(D_i > 1\) and others goind as far as \(\frac{4}{n}\), with \(n\) being the sample size.

m_eval1 %>%
  augment() %>%
  filter(.cooksd > 1)

# A tibble: 0 × 8
# ℹ 8 variables: eval <dbl>, beauty <dbl>, .fitted <dbl>, .resid <dbl>,
#   .hat <dbl>, .sigma <dbl>, .cooksd <dbl>, .std.resid <dbl>

m_eval1 %>%
  augment() %>%
  filter(.cooksd > 4 / n())

# A tibble: 26 × 8
    eval beauty .fitted .resid    .hat .sigma .cooksd .std.resid
   <dbl>  <dbl>   <dbl>  <dbl>   <dbl>  <dbl>   <dbl>      <dbl>
 1   3.1   6.67    4.16 -1.06  0.00685  0.543 0.0130       -1.94
 2   2.2   1.67    3.81 -1.61  0.00918  0.540 0.0406       -2.96
 3   4.9   7.83    4.24  0.663 0.0130   0.545 0.00985       1.22
 4   3.4   7.83    4.24 -0.837 0.0130   0.544 0.0157       -1.55
 5   2.1   3       3.90 -1.80  0.00403  0.539 0.0221       -3.31
 6   3     6.67    4.16 -1.16  0.00685  0.543 0.0156       -2.13
 7   2.8   2.33    3.85 -1.05  0.00619  0.543 0.0117       -1.94
 8   2.9   1.67    3.81 -0.906 0.00918  0.544 0.0129       -1.67
 9   2.6   1.67    3.81 -1.21  0.00918  0.543 0.0229       -2.22
10   3     6.33    4.13 -1.13  0.00556  0.543 0.0121       -2.08
# ℹ 16 more rows
…
Rows: 463 Columns: 64
── Column specification ────────────────────────────────────────────────────────
Delimiter: ","
dbl (64): tenured, profnumber, minority, age, beautyf2upper, beautyflowerdiv...

ℹ Use `spec()` to retrieve the full column specification for this data.
ℹ Specify the column types or set `show_col_types = FALSE` to quiet this message.

# A tibble: 463 × 21
   tenured  prof minority   age bty_f2upper bty_flowerdiv bty_fupperdiv
     <dbl> <dbl>    <dbl> <dbl>       <dbl>         <dbl>         <dbl>
 1       1     2        0    59           2             4             4
 2       0     5        0    31           9             7             9
 3       1     6        0    62           5             6             6
 4       1     8        0    51           6             4             6
 5       0     9        0    33           5             3             7
 6       0    12        0    37           5             4             5
 7       1    13        0    42           5             4             7
 8       1    14        0    49           5             3             3
 9       0    18        0    48           6             3             5
10       1    19        0    46           5             4             4
# ℹ 453 more rows
# ℹ 14 more variables: bty_m2upper <dbl>, bty_mlowerdiv <dbl>,
#   bty_mupperdiv <dbl>, eval <dbl>, female <dbl>, formal <dbl>, lower <dbl>,
#   nonenglish <dbl>, students <dbl>, tenure <dbl>, blkandwhite <dbl>,
#   course_id <dbl>, beauty <dbl>, rank <chr>
…
