Lab 3: Describing Relationships
…
summarize(): to create a new tibble comprised of summary statistics for one (or more) rows, depending on the use of the .by argument.

The pipe operator: %>% (again)

The pipe operator (%>%) allows us to combine multiple operations in R into a single sequential chain of actions. Much like how the + sign has to come at the end of the line when constructing plots — because we are building the plot layer-by-layer — the pipe operator %>% has to come at the end of the line because we are building a data wrangling pipeline step-by-step. If you do not include the pipe operator, R assumes the next line of code is unrelated to the layers you built and you will get an error.

filter rows

The filter() function works much like the “Filter” option in Microsoft Excel. It allows you to specify criteria about the values of a variable in your dataset and then selects only the rows that match that criteria.

# only Europe (show, not store in the environment)
pei %>% 
  filter(region == "Europe")

# A tibble: 49 × 169
   country ISO   y2012   y2013   y2014   y2015   y2016   y2017   y2018   y2019  
   <chr>   <chr> <dbl+l> <dbl+l> <dbl+l> <dbl+l> <dbl+l> <dbl+l> <dbl+l> <dbl+l>
 1 Albania ALB   0 [Res… 1 [201… 0 [Res… 0 [Res… 0 [Res… 1 [201… 0 [Res… 0 [Res…
 2 Armenia ARM   0 [Res… 1 [201… 0 [Res… 0 [Res… 0 [Res… 1 [201… 1 [201… 0 [Res…
 3 Austria AUT   0 [Res… 1 [201… 0 [Res… 0 [Res… 1 [201… 1 [201… 0 [Res… 1 [201…
 4 Azerba… AZE   0 [Res… 1 [201… 0 [Res… 1 [201… 0 [Res… 0 [Res… 1 [201… 0 [Res…
 5 Belgium BEL   0 [Res… 0 [Res… 1 [201… 0 [Res… 0 [Res… 0 [Res… 0 [Res… 1 [201…
 6 Bulgar… BGR   0 [Res… 1 [201… 1 [201… 0 [Res… 1 [201… 1 [201… 0 [Res… 0 [Res…
 7 Bosnia  BIH   0 [Res… 0 [Res… 1 [201… 0 [Res… 0 [Res… 0 [Res… 1 [201… 0 [Res…
 8 Belarus BLR   1 [201… 0 [Res… 0 [Res… 1 [201… 1 [201… 0 [Res… 0 [Res… 1 [201…
 9 Switze… CHE   0 [Res… 0 [Res… 0 [Res… 1 [201… 0 [Res… 0 [Res… 0 [Res… 1 [201…
10 Cyprus  CYP   0 [Res… 1 [201… 0 [Res… 0 [Res… 1 [201… 0 [Res… 1 [201… 0 [Res…
# ℹ 39 more rows
# ℹ 159 more variables: y2020 <dbl+lbl>, y2021 <dbl+lbl>, y2022 <dbl+lbl>,
#   COUNTRYDATA <dbl>, PR <dbl>, CL <dbl>, development <dbl>, gdp_pc_ppp <dbl>,
#   region <chr>, region9 <dbl+lbl>, oecd <dbl>, OVERALLINTEGRITY <dbl>,
#   PEIIndexp <dbl>, PEIIndexi <dbl>, rating <dbl>, LAWS <dbl>,
#   lawsunfair <dbl>, lawsunfair2 <dbl>, favoredincumbent <dbl>,
#   favoredincumbent2 <dbl>, citizens <dbl>, citizens2 <dbl>, laws <dbl>, …
…
< for “less than”

>= for “greater than or equal to”

<= for “less than or equal to”

!= for “not equal to”

%in% for “inside”

# everything but Europe (show, not store in the environment)
pei %>% 
  filter(region != "Europe")

# A tibble: 120 × 169
   country ISO   y2012   y2013   y2014   y2015   y2016   y2017   y2018   y2019  
   <chr>   <chr> <dbl+l> <dbl+l> <dbl+l> <dbl+l> <dbl+l> <dbl+l> <dbl+l> <dbl+l>
 1 Afghan… AFG   0 [Res… 0 [Res… 1 [201… 0 [Res… 0 [Res… 0 [Res… 1 [201… 1 [201…
 2 Angola  AGO   1 [201… 0 [Res… 0 [Res… 0 [Res… 0 [Res… 1 [201… 0 [Res… 0 [Res…
 3 Argent… ARG   0 [Res… 1 [201… 0 [Res… 1 [201… 0 [Res… 1 [201… 0 [Res… 1 [201…
 4 Antigu… ATG   0 [Res… 0 [Res… 0 [Res… 0 [Res… 0 [Res… 0 [Res… 1 [201… 0 [Res…
 5 Austra… AUS   0 [Res… 1 [201… 0 [Res… 0 [Res… 1 [201… 0 [Res… 0 [Res… 1 [201…
 6 Burundi BDI   0 [Res… 0 [Res… 0 [Res… 1 [201… 0 [Res… 0 [Res… 0 [Res… 0 [Res…
 7 Benin   BEN   0 [Res… 0 [Res… 0 [Res… 1 [201… 1 [201… 0 [Res… 0 [Res… 1 [201…
 8 Burkin… BFA   1 [201… 0 [Res… 0 [Res… 1 [201… 0 [Res… 0 [Res… 0 [Res… 0 [Res…
 9 Bangla… BGD   0 [Res… 0 [Res… 1 [201… 0 [Res… 0 [Res… 0 [Res… 0 [Res… 0 [Res…
10 Bahrain BHR   0 [Res… 0 [Res… 1 [201… 0 [Res… 0 [Res… 0 [Res… 1 [201… 0 [Res…
# ℹ 110 more rows
# ℹ 159 more variables: y2020 <dbl+lbl>, y2021 <dbl+lbl>, y2022 <dbl+lbl>,
#   COUNTRYDATA <dbl>, PR <dbl>, CL <dbl>, development <dbl>, gdp_pc_ppp <dbl>,
#   region <chr>, region9 <dbl+lbl>, oecd <dbl>, OVERALLINTEGRITY <dbl>,
#   PEIIndexp <dbl>, PEIIndexi <dbl>, rating <dbl>, LAWS <dbl>,
#   lawsunfair <dbl>, lawsunfair2 <dbl>, favoredincumbent <dbl>,
#   favoredincumbent2 <dbl>, citizens <dbl>, citizens2 <dbl>, laws <dbl>, …

# every row where PEI index is ABOVE 50
pei %>% 
  filter(PEIIndexi > 55)

# A tibble: 84 × 169
   country ISO   y2012   y2013   y2014   y2015   y2016   y2017   y2018   y2019  
   <chr>   <chr> <dbl+l> <dbl+l> <dbl+l> <dbl+l> <dbl+l> <dbl+l> <dbl+l> <dbl+l>
 1 Argent… ARG   0 [Res… 1 [201… 0 [Res… 1 [201… 0 [Res… 1 [201… 0 [Res… 1 [201…
 2 Armenia ARM   0 [Res… 1 [201… 0 [Res… 0 [Res… 0 [Res… 1 [201… 1 [201… 0 [Res…
 3 Austra… AUS   0 [Res… 1 [201… 0 [Res… 0 [Res… 1 [201… 0 [Res… 0 [Res… 1 [201…
 4 Austria AUT   0 [Res… 1 [201… 0 [Res… 0 [Res… 1 [201… 1 [201… 0 [Res… 1 [201…
 5 Belgium BEL   0 [Res… 0 [Res… 1 [201… 0 [Res… 0 [Res… 0 [Res… 0 [Res… 1 [201…
 6 Benin   BEN   0 [Res… 0 [Res… 0 [Res… 1 [201… 1 [201… 0 [Res… 0 [Res… 1 [201…
 7 Bulgar… BGR   0 [Res… 1 [201… 1 [201… 0 [Res… 1 [201… 1 [201… 0 [Res… 0 [Res…
 8 Brazil  BRA   0 [Res… 0 [Res… 1 [201… 0 [Res… 0 [Res… 0 [Res… 1 [201… 0 [Res…
 9 Barbad… BRB   0 [Res… 1 [201… 0 [Res… 0 [Res… 0 [Res… 0 [Res… 1 [201… 0 [Res…
10 Bhutan  BTN   0 [Res… 1 [201… 0 [Res… 0 [Res… 0 [Res… 0 [Res… 1 [201… 0 [Res…
# ℹ 74 more rows
# ℹ 159 more variables: y2020 <dbl+lbl>, y2021 <dbl+lbl>, y2022 <dbl+lbl>,
#   COUNTRYDATA <dbl>, PR <dbl>, CL <dbl>, development <dbl>, gdp_pc_ppp <dbl>,
#   region <chr>, region9 <dbl+lbl>, oecd <dbl>, OVERALLINTEGRITY <dbl>,
#   PEIIndexp <dbl>, PEIIndexi <dbl>, rating <dbl>, LAWS <dbl>,
#   lawsunfair <dbl>, lawsunfair2 <dbl>, favoredincumbent <dbl>,
#   favoredincumbent2 <dbl>, citizens <dbl>, citizens2 <dbl>, laws <dbl>, …

# every row where PEI type is ABOVE 3
pei %>% 
  filter(PEItype > 3)

# A tibble: 61 × 169
   country ISO   y2012   y2013   y2014   y2015   y2016   y2017   y2018   y2019  
   <chr>   <chr> <dbl+l> <dbl+l> <dbl+l> <dbl+l> <dbl+l> <dbl+l> <dbl+l> <dbl+l>
 1 Argent… ARG   0 [Res… 1 [201… 0 [Res… 1 [201… 0 [Res… 1 [201… 0 [Res… 1 [201…
 2 Austra… AUS   0 [Res… 1 [201… 0 [Res… 0 [Res… 1 [201… 0 [Res… 0 [Res… 1 [201…
 3 Austria AUT   0 [Res… 1 [201… 0 [Res… 0 [Res… 1 [201… 1 [201… 0 [Res… 1 [201…
 4 Belgium BEL   0 [Res… 0 [Res… 1 [201… 0 [Res… 0 [Res… 0 [Res… 0 [Res… 1 [201…
 5 Bulgar… BGR   0 [Res… 1 [201… 1 [201… 0 [Res… 1 [201… 1 [201… 0 [Res… 0 [Res…
 6 Brazil  BRA   0 [Res… 0 [Res… 1 [201… 0 [Res… 0 [Res… 0 [Res… 1 [201… 0 [Res…
 7 Barbad… BRB   0 [Res… 1 [201… 0 [Res… 0 [Res… 0 [Res… 0 [Res… 1 [201… 0 [Res…
 8 Bhutan  BTN   0 [Res… 1 [201… 0 [Res… 0 [Res… 0 [Res… 0 [Res… 1 [201… 0 [Res…
 9 Canada  CAN   0 [Res… 0 [Res… 0 [Res… 1 [201… 0 [Res… 0 [Res… 0 [Res… 1 [201…
10 Switze… CHE   0 [Res… 0 [Res… 0 [Res… 1 [201… 0 [Res… 0 [Res… 0 [Res… 1 [201…
# ℹ 51 more rows
# ℹ 159 more variables: y2020 <dbl+lbl>, y2021 <dbl+lbl>, y2022 <dbl+lbl>,
#   COUNTRYDATA <dbl>, PR <dbl>, CL <dbl>, development <dbl>, gdp_pc_ppp <dbl>,
#   region <chr>, region9 <dbl+lbl>, oecd <dbl>, OVERALLINTEGRITY <dbl>,
#   PEIIndexp <dbl>, PEIIndexi <dbl>, rating <dbl>, LAWS <dbl>,
#   lawsunfair <dbl>, lawsunfair2 <dbl>, favoredincumbent <dbl>,
#   favoredincumbent2 <dbl>, citizens <dbl>, citizens2 <dbl>, laws <dbl>, …

# every row where PEI index is EQUAL TO or ABOVE 50
pei %>% 
  filter(PEIIndexi >= 55)

# A tibble: 84 × 169
   country ISO   y2012   y2013   y2014   y2015   y2016   y2017   y2018   y2019  
   <chr>   <chr> <dbl+l> <dbl+l> <dbl+l> <dbl+l> <dbl+l> <dbl+l> <dbl+l> <dbl+l>
 1 Argent… ARG   0 [Res… 1 [201… 0 [Res… 1 [201… 0 [Res… 1 [201… 0 [Res… 1 [201…
 2 Armenia ARM   0 [Res… 1 [201… 0 [Res… 0 [Res… 0 [Res… 1 [201… 1 [201… 0 [Res…
 3 Austra… AUS   0 [Res… 1 [201… 0 [Res… 0 [Res… 1 [201… 0 [Res… 0 [Res… 1 [201…
 4 Austria AUT   0 [Res… 1 [201… 0 [Res… 0 [Res… 1 [201… 1 [201… 0 [Res… 1 [201…
 5 Belgium BEL   0 [Res… 0 [Res… 1 [201… 0 [Res… 0 [Res… 0 [Res… 0 [Res… 1 [201…
 6 Benin   BEN   0 [Res… 0 [Res… 0 [Res… 1 [201… 1 [201… 0 [Res… 0 [Res… 1 [201…
 7 Bulgar… BGR   0 [Res… 1 [201… 1 [201… 0 [Res… 1 [201… 1 [201… 0 [Res… 0 [Res…
 8 Brazil  BRA   0 [Res… 0 [Res… 1 [201… 0 [Res… 0 [Res… 0 [Res… 1 [201… 0 [Res…
 9 Barbad… BRB   0 [Res… 1 [201… 0 [Res… 0 [Res… 0 [Res… 0 [Res… 1 [201… 0 [Res…
10 Bhutan  BTN   0 [Res… 1 [201… 0 [Res… 0 [Res… 0 [Res… 0 [Res… 1 [201… 0 [Res…
# ℹ 74 more rows
# ℹ 159 more variables: y2020 <dbl+lbl>, y2021 <dbl+lbl>, y2022 <dbl+lbl>,
#   COUNTRYDATA <dbl>, PR <dbl>, CL <dbl>, development <dbl>, gdp_pc_ppp <dbl>,
#   region <chr>, region9 <dbl+lbl>, oecd <dbl>, OVERALLINTEGRITY <dbl>,
#   PEIIndexp <dbl>, PEIIndexi <dbl>, rating <dbl>, LAWS <dbl>,
#   lawsunfair <dbl>, lawsunfair2 <dbl>, favoredincumbent <dbl>,
#   favoredincumbent2 <dbl>, citizens <dbl>, citizens2 <dbl>, laws <dbl>, …

# every row where PEI type is EQUAL TO or ABOVE 3
pei %>% 
  filter(PEItype >= 3)

# A tibble: 104 × 169
   country ISO   y2012   y2013   y2014   y2015   y2016   y2017   y2018   y2019  
   <chr>   <chr> <dbl+l> <dbl+l> <dbl+l> <dbl+l> <dbl+l> <dbl+l> <dbl+l> <dbl+l>
 1 Argent… ARG   0 [Res… 1 [201… 0 [Res… 1 [201… 0 [Res… 1 [201… 0 [Res… 1 [201…
 2 Armenia ARM   0 [Res… 1 [201… 0 [Res… 0 [Res… 0 [Res… 1 [201… 1 [201… 0 [Res…
 3 Austra… AUS   0 [Res… 1 [201… 0 [Res… 0 [Res… 1 [201… 0 [Res… 0 [Res… 1 [201…
 4 Austria AUT   0 [Res… 1 [201… 0 [Res… 0 [Res… 1 [201… 1 [201… 0 [Res… 1 [201…
 5 Belgium BEL   0 [Res… 0 [Res… 1 [201… 0 [Res… 0 [Res… 0 [Res… 0 [Res… 1 [201…
 6 Benin   BEN   0 [Res… 0 [Res… 0 [Res… 1 [201… 1 [201… 0 [Res… 0 [Res… 1 [201…
 7 Bulgar… BGR   0 [Res… 1 [201… 1 [201… 0 [Res… 1 [201… 1 [201… 0 [Res… 0 [Res…
 8 Bahamas BHS   0 [Res… 0 [Res… 0 [Res… 0 [Res… 0 [Res… 1 [201… 0 [Res… 0 [Res…
 9 Bosnia  BIH   0 [Res… 0 [Res… 1 [201… 0 [Res… 0 [Res… 0 [Res… 1 [201… 0 [Res…
10 Belize  BLZ   0 [Res… 0 [Res… 0 [Res… 1 [201… 0 [Res… 0 [Res… 0 [Res… 0 [Res…
# ℹ 94 more rows
# ℹ 159 more variables: y2020 <dbl+lbl>, y2021 <dbl+lbl>, y2022 <dbl+lbl>,
#   COUNTRYDATA <dbl>, PR <dbl>, CL <dbl>, development <dbl>, gdp_pc_ppp <dbl>,
#   region <chr>, region9 <dbl+lbl>, oecd <dbl>, OVERALLINTEGRITY <dbl>,
#   PEIIndexp <dbl>, PEIIndexi <dbl>, rating <dbl>, LAWS <dbl>,
#   lawsunfair <dbl>, lawsunfair2 <dbl>, favoredincumbent <dbl>,
#   favoredincumbent2 <dbl>, citizens <dbl>, citizens2 <dbl>, laws <dbl>, …
…
# select every observation that is in Europe or Asia, has PEI index above 50, and GDP above average 
pei %>%
  filter(
    PEIIndexi > 50,
    region == "Europe" | region == "Asia",
    gdp_pc_ppp > mean(gdp_pc_ppp, na.rm = T)
  )

# A tibble: 38 × 169
   country ISO   y2012   y2013   y2014   y2015   y2016   y2017   y2018   y2019  
   <chr>   <chr> <dbl+l> <dbl+l> <dbl+l> <dbl+l> <dbl+l> <dbl+l> <dbl+l> <dbl+l>
 1 Austria AUT   0 [Res… 1 [201… 0 [Res… 0 [Res… 1 [201… 1 [201… 0 [Res… 1 [201…
 2 Belgium BEL   0 [Res… 0 [Res… 1 [201… 0 [Res… 0 [Res… 0 [Res… 0 [Res… 1 [201…
 3 Bulgar… BGR   0 [Res… 1 [201… 1 [201… 0 [Res… 1 [201… 1 [201… 0 [Res… 0 [Res…
 4 Switze… CHE   0 [Res… 0 [Res… 0 [Res… 1 [201… 0 [Res… 0 [Res… 0 [Res… 1 [201…
 5 Cyprus  CYP   0 [Res… 1 [201… 0 [Res… 0 [Res… 1 [201… 0 [Res… 1 [201… 0 [Res…
 6 Czech … CZE   1 [201… 1 [201… 0 [Res… 0 [Res… 0 [Res… 1 [201… 1 [201… 0 [Res…
 7 Germany DEU   0 [Res… 1 [201… 0 [Res… 0 [Res… 0 [Res… 1 [201… 0 [Res… 0 [Res…
 8 Denmark DNK   0 [Res… 0 [Res… 0 [Res… 1 [201… 0 [Res… 0 [Res… 0 [Res… 1 [201…
 9 Spain   ESP   0 [Res… 0 [Res… 0 [Res… 1 [201… 1 [201… 0 [Res… 0 [Res… 1 [201…
10 Estonia EST   0 [Res… 0 [Res… 0 [Res… 1 [201… 0 [Res… 0 [Res… 0 [Res… 1 [201…
# ℹ 28 more rows
# ℹ 159 more variables: y2020 <dbl+lbl>, y2021 <dbl+lbl>, y2022 <dbl+lbl>,
#   COUNTRYDATA <dbl>, PR <dbl>, CL <dbl>, development <dbl>, gdp_pc_ppp <dbl>,
#   region <chr>, region9 <dbl+lbl>, oecd <dbl>, OVERALLINTEGRITY <dbl>,
#   PEIIndexp <dbl>, PEIIndexi <dbl>, rating <dbl>, LAWS <dbl>,
#   lawsunfair <dbl>, lawsunfair2 <dbl>, favoredincumbent <dbl>,
#   favoredincumbent2 <dbl>, citizens <dbl>, citizens2 <dbl>, laws <dbl>, …

# same result but %in% instead or OR (|) for regions  
pei %>%
  filter(
    PEIIndexi > 50,
    region %in% c("Europe", "Asia"),
    gdp_pc_ppp > mean(gdp_pc_ppp, na.rm = T)
  )

# A tibble: 38 × 169
   country ISO   y2012   y2013   y2014   y2015   y2016   y2017   y2018   y2019  
   <chr>   <chr> <dbl+l> <dbl+l> <dbl+l> <dbl+l> <dbl+l> <dbl+l> <dbl+l> <dbl+l>
 1 Austria AUT   0 [Res… 1 [201… 0 [Res… 0 [Res… 1 [201… 1 [201… 0 [Res… 1 [201…
 2 Belgium BEL   0 [Res… 0 [Res… 1 [201… 0 [Res… 0 [Res… 0 [Res… 0 [Res… 1 [201…
 3 Bulgar… BGR   0 [Res… 1 [201… 1 [201… 0 [Res… 1 [201… 1 [201… 0 [Res… 0 [Res…
 4 Switze… CHE   0 [Res… 0 [Res… 0 [Res… 1 [201… 0 [Res… 0 [Res… 0 [Res… 1 [201…
 5 Cyprus  CYP   0 [Res… 1 [201… 0 [Res… 0 [Res… 1 [201… 0 [Res… 1 [201… 0 [Res…
 6 Czech … CZE   1 [201… 1 [201… 0 [Res… 0 [Res… 0 [Res… 1 [201… 1 [201… 0 [Res…
 7 Germany DEU   0 [Res… 1 [201… 0 [Res… 0 [Res… 0 [Res… 1 [201… 0 [Res… 0 [Res…
 8 Denmark DNK   0 [Res… 0 [Res… 0 [Res… 1 [201… 0 [Res… 0 [Res… 0 [Res… 1 [201…
 9 Spain   ESP   0 [Res… 0 [Res… 0 [Res… 1 [201… 1 [201… 0 [Res… 0 [Res… 1 [201…
10 Estonia EST   0 [Res… 0 [Res… 0 [Res… 1 [201… 0 [Res… 0 [Res… 0 [Res… 1 [201…
# ℹ 28 more rows
# ℹ 159 more variables: y2020 <dbl+lbl>, y2021 <dbl+lbl>, y2022 <dbl+lbl>,
#   COUNTRYDATA <dbl>, PR <dbl>, CL <dbl>, development <dbl>, gdp_pc_ppp <dbl>,
#   region <chr>, region9 <dbl+lbl>, oecd <dbl>, OVERALLINTEGRITY <dbl>,
#   PEIIndexp <dbl>, PEIIndexi <dbl>, rating <dbl>, LAWS <dbl>,
#   lawsunfair <dbl>, lawsunfair2 <dbl>, favoredincumbent <dbl>,
#   favoredincumbent2 <dbl>, citizens <dbl>, citizens2 <dbl>, laws <dbl>, …

# select every observation that is in not in Europe nor Asia, has PEI index above or equal to 40, and GDP above median 

select variables

This is used for subsetting variables (columns, not rows), deleting columns, and re-arranging columns.

# select PEIIndexi and ISO variables only 
pei %>%
  select(PEIIndexi, ISO)

# A tibble: 169 × 2
   PEIIndexi ISO  
       <dbl> <chr>
 1      34.6 AFG  
 2      36.3 AGO  
 3      49.7 ALB  
 4      66.6 ARG  
 5      57.7 ARM  
 6      47.9 ATG  
 7      69.8 AUS  
 8      78.9 AUT  
 9      36.1 AZE  
10      27.1 BDI  
# ℹ 159 more rows

# remove ISO and y2012 variables 
pei %>%
  select(-ISO, -y2012)

# A tibble: 169 × 167
   country       y2013   y2014   y2015   y2016   y2017   y2018   y2019   y2020  
   <chr>         <dbl+l> <dbl+l> <dbl+l> <dbl+l> <dbl+l> <dbl+l> <dbl+l> <dbl+l>
 1 Afghanistan   0 [Res… 1 [201… 0 [Res… 0 [Res… 0 [Res… 1 [201… 1 [201… 0 [Res…
 2 Angola        0 [Res… 0 [Res… 0 [Res… 0 [Res… 1 [201… 0 [Res… 0 [Res… 0 [Res…
 3 Albania       1 [201… 0 [Res… 0 [Res… 0 [Res… 1 [201… 0 [Res… 0 [Res… 0 [Res…
 4 Argentina     1 [201… 0 [Res… 1 [201… 0 [Res… 1 [201… 0 [Res… 1 [201… 0 [Res…
 5 Armenia       1 [201… 0 [Res… 0 [Res… 0 [Res… 1 [201… 1 [201… 0 [Res… 0 [Res…
 6 Antigua and … 0 [Res… 0 [Res… 0 [Res… 0 [Res… 0 [Res… 1 [201… 0 [Res… 0 [Res…
 7 Australia     1 [201… 0 [Res… 0 [Res… 1 [201… 0 [Res… 0 [Res… 1 [201… 0 [Res…
 8 Austria       1 [201… 0 [Res… 0 [Res… 1 [201… 1 [201… 0 [Res… 1 [201… 0 [Res…
 9 Azerbaijan    1 [201… 0 [Res… 1 [201… 0 [Res… 0 [Res… 1 [201… 0 [Res… 1 [202…
10 Burundi       0 [Res… 0 [Res… 1 [201… 0 [Res… 0 [Res… 0 [Res… 0 [Res… 1 [202…
# ℹ 159 more rows
# ℹ 158 more variables: y2021 <dbl+lbl>, y2022 <dbl+lbl>, COUNTRYDATA <dbl>,
#   PR <dbl>, CL <dbl>, development <dbl>, gdp_pc_ppp <dbl>, region <chr>,
#   region9 <dbl+lbl>, oecd <dbl>, OVERALLINTEGRITY <dbl>, PEIIndexp <dbl>,
#   PEIIndexi <dbl>, rating <dbl>, LAWS <dbl>, lawsunfair <dbl>,
#   lawsunfair2 <dbl>, favoredincumbent <dbl>, favoredincumbent2 <dbl>,
#   citizens <dbl>, citizens2 <dbl>, laws <dbl>, lawsi <dbl>, …

# change the order of columns in dataset 
pei %>%
  relocate(PEIIndexi)

# A tibble: 169 × 169
   PEIIndexi country       ISO   y2012   y2013   y2014   y2015   y2016   y2017  
       <dbl> <chr>         <chr> <dbl+l> <dbl+l> <dbl+l> <dbl+l> <dbl+l> <dbl+l>
 1      34.6 Afghanistan   AFG   0 [Res… 0 [Res… 1 [201… 0 [Res… 0 [Res… 0 [Res…
 2      36.3 Angola        AGO   1 [201… 0 [Res… 0 [Res… 0 [Res… 0 [Res… 1 [201…
 3      49.7 Albania       ALB   0 [Res… 1 [201… 0 [Res… 0 [Res… 0 [Res… 1 [201…
 4      66.6 Argentina     ARG   0 [Res… 1 [201… 0 [Res… 1 [201… 0 [Res… 1 [201…
 5      57.7 Armenia       ARM   0 [Res… 1 [201… 0 [Res… 0 [Res… 0 [Res… 1 [201…
 6      47.9 Antigua and … ATG   0 [Res… 0 [Res… 0 [Res… 0 [Res… 0 [Res… 0 [Res…
 7      69.8 Australia     AUS   0 [Res… 1 [201… 0 [Res… 0 [Res… 1 [201… 0 [Res…
 8      78.9 Austria       AUT   0 [Res… 1 [201… 0 [Res… 0 [Res… 1 [201… 1 [201…
 9      36.1 Azerbaijan    AZE   0 [Res… 1 [201… 0 [Res… 1 [201… 0 [Res… 0 [Res…
10      27.1 Burundi       BDI   0 [Res… 0 [Res… 0 [Res… 1 [201… 0 [Res… 0 [Res…
# ℹ 159 more rows
# ℹ 160 more variables: y2018 <dbl+lbl>, y2019 <dbl+lbl>, y2020 <dbl+lbl>,
#   y2021 <dbl+lbl>, y2022 <dbl+lbl>, COUNTRYDATA <dbl>, PR <dbl>, CL <dbl>,
#   development <dbl>, gdp_pc_ppp <dbl>, region <chr>, region9 <dbl+lbl>,
#   oecd <dbl>, OVERALLINTEGRITY <dbl>, PEIIndexp <dbl>, rating <dbl>,
#   LAWS <dbl>, lawsunfair <dbl>, lawsunfair2 <dbl>, favoredincumbent <dbl>,
#   favoredincumbent2 <dbl>, citizens <dbl>, citizens2 <dbl>, laws <dbl>, …

# change the order of columns in dataset 
pei %>%
  select(ISO, PEIIndexi, everything())

# A tibble: 169 × 169
   ISO   PEIIndexi country       y2012   y2013   y2014   y2015   y2016   y2017  
   <chr>     <dbl> <chr>         <dbl+l> <dbl+l> <dbl+l> <dbl+l> <dbl+l> <dbl+l>
 1 AFG        34.6 Afghanistan   0 [Res… 0 [Res… 1 [201… 0 [Res… 0 [Res… 0 [Res…
 2 AGO        36.3 Angola        1 [201… 0 [Res… 0 [Res… 0 [Res… 0 [Res… 1 [201…
 3 ALB        49.7 Albania       0 [Res… 1 [201… 0 [Res… 0 [Res… 0 [Res… 1 [201…
 4 ARG        66.6 Argentina     0 [Res… 1 [201… 0 [Res… 1 [201… 0 [Res… 1 [201…
 5 ARM        57.7 Armenia       0 [Res… 1 [201… 0 [Res… 0 [Res… 0 [Res… 1 [201…
 6 ATG        47.9 Antigua and … 0 [Res… 0 [Res… 0 [Res… 0 [Res… 0 [Res… 0 [Res…
 7 AUS        69.8 Australia     0 [Res… 1 [201… 0 [Res… 0 [Res… 1 [201… 0 [Res…
 8 AUT        78.9 Austria       0 [Res… 1 [201… 0 [Res… 0 [Res… 1 [201… 1 [201…
 9 AZE        36.1 Azerbaijan    0 [Res… 1 [201… 0 [Res… 1 [201… 0 [Res… 0 [Res…
10 BDI        27.1 Burundi       0 [Res… 0 [Res… 0 [Res… 1 [201… 0 [Res… 0 [Res…
# ℹ 159 more rows
# ℹ 160 more variables: y2018 <dbl+lbl>, y2019 <dbl+lbl>, y2020 <dbl+lbl>,
#   y2021 <dbl+lbl>, y2022 <dbl+lbl>, COUNTRYDATA <dbl>, PR <dbl>, CL <dbl>,
#   development <dbl>, gdp_pc_ppp <dbl>, region <chr>, region9 <dbl+lbl>,
#   oecd <dbl>, OVERALLINTEGRITY <dbl>, PEIIndexp <dbl>, rating <dbl>,
#   LAWS <dbl>, lawsunfair <dbl>, lawsunfair2 <dbl>, favoredincumbent <dbl>,
#   favoredincumbent2 <dbl>, citizens <dbl>, citizens2 <dbl>, laws <dbl>, …

# only select variables starting with "y"
pei %>% 
  select(starts_with("y"))

# A tibble: 169 × 11
   y2012     y2013     y2014     y2015   y2016   y2017   y2018   y2019   y2020  
   <dbl+lbl> <dbl+lbl> <dbl+lbl> <dbl+l> <dbl+l> <dbl+l> <dbl+l> <dbl+l> <dbl+l>
 1 0 [Rest]  0 [Rest]  1 [2014]  0 [Res… 0 [Res… 0 [Res… 1 [201… 1 [201… 0 [Res…
 2 1 [2012]  0 [Rest]  0 [Rest]  0 [Res… 0 [Res… 1 [201… 0 [Res… 0 [Res… 0 [Res…
 3 0 [Rest]  1 [2013]  0 [Rest]  0 [Res… 0 [Res… 1 [201… 0 [Res… 0 [Res… 0 [Res…
 4 0 [Rest]  1 [2013]  0 [Rest]  1 [201… 0 [Res… 1 [201… 0 [Res… 1 [201… 0 [Res…
 5 0 [Rest]  1 [2013]  0 [Rest]  0 [Res… 0 [Res… 1 [201… 1 [201… 0 [Res… 0 [Res…
 6 0 [Rest]  0 [Rest]  0 [Rest]  0 [Res… 0 [Res… 0 [Res… 1 [201… 0 [Res… 0 [Res…
 7 0 [Rest]  1 [2013]  0 [Rest]  0 [Res… 1 [201… 0 [Res… 0 [Res… 1 [201… 0 [Res…
 8 0 [Rest]  1 [2013]  0 [Rest]  0 [Res… 1 [201… 1 [201… 0 [Res… 1 [201… 0 [Res…
 9 0 [Rest]  1 [2013]  0 [Rest]  1 [201… 0 [Res… 0 [Res… 1 [201… 0 [Res… 1 [202…
10 0 [Rest]  0 [Rest]  0 [Rest]  1 [201… 0 [Res… 0 [Res… 0 [Res… 0 [Res… 1 [202…
# ℹ 159 more rows
# ℹ 2 more variables: y2021 <dbl+lbl>, y2022 <dbl+lbl>
…
