Lab 4: Data Wrangling with dplyr and tidyr
…
summarize(): to create a new tibble comprised of summary statistics for one (or more) rows, depending on the use of the .by argument.

The pipe operator: %>% (again)

The pipe operator (%>%) allows us to combine multiple operations in R into a single sequential chain of actions. Much like how the + sign has to come at the end of the line when constructing plots — because we are building the plot layer-by-layer — the pipe operator %>% has to come at the end of the line because we are building a data wrangling pipeline step-by-step. If you do not include the pipe operator, R assumes the next line of code is unrelated to the layers you built and you will get an error.

filter rows

The filter() function works much like the “Filter” option in Microsoft Excel. It allows you to specify criteria about the values of a variable in your dataset and then selects only the rows that match that criteria.

unpko %>% 
  filter(missioncountry == "Rwanda")

# A tibble: 45 × 12
   mission missioncountry missionccode missionccode2  year month yearmon troop
   <chr>   <chr>                 <dbl>         <dbl> <dbl> <dbl>   <dbl> <dbl>
 1 UNAMIR  Rwanda                  517            NA  1993    10   1993.    23
 2 UNAMIR  Rwanda                  517            NA  1993    11   1993.   444
 3 UNAMIR  Rwanda                  517            NA  1993    12   1993.  1012
 4 UNAMIR  Rwanda                  517            NA  1994     1   1994.  1393
 5 UNAMIR  Rwanda                  517            NA  1994     2   1994.  1844
 6 UNAMIR  Rwanda                  517            NA  1994     3   1994.  2184
 7 UNAMIR  Rwanda                  517            NA  1994     4   1994.   374
 8 UNAMIR  Rwanda                  517            NA  1994     5   1994.   381
 9 UNAMIR  Rwanda                  517            NA  1994     6   1994.   328
10 UNAMIR  Rwanda                  517            NA  1994     7   1994.   930
# ℹ 35 more rows
# ℹ 4 more variables: police <dbl>, militaryobservers <dbl>, total <dbl>,
#   total2 <dbl>
…
< for “less than”

>= for “greater than or equal to”

<= for “less than or equal to”

!= for “not equal to”

%in% for “inside”

# everything but Rwanda (show, not store in the environment)
unpko %>% 
  filter(missioncountry != "Rwanda")

# A tibble: 6,130 × 12
   mission missioncountry missionccode missionccode2  year month yearmon troop
   <chr>   <chr>                 <dbl>         <dbl> <dbl> <dbl>   <dbl> <dbl>
 1 BINUB   Burundi                 516            NA  2007     1   2007.     0
 2 BINUB   Burundi                 516            NA  2007     2   2007.     0
 3 BINUB   Burundi                 516            NA  2007     3   2007.     0
 4 BINUB   Burundi                 516            NA  2007     4   2007.     0
 5 BINUB   Burundi                 516            NA  2007     5   2007.     0
 6 BINUB   Burundi                 516            NA  2007     6   2007.     0
 7 BINUB   Burundi                 516            NA  2007     7   2007.     0
 8 BINUB   Burundi                 516            NA  2007     8   2007.     0
 9 BINUB   Burundi                 516            NA  2007     9   2007.     0
10 BINUB   Burundi                 516            NA  2007    10   2007.     0
# ℹ 6,120 more rows
# ℹ 4 more variables: police <dbl>, militaryobservers <dbl>, total <dbl>,
#   total2 <dbl>

# every row where troop index is ABOVE 10
unpko %>% 
  filter(troop > 10)

# A tibble: 3,686 × 12
   mission missioncountry   missionccode missionccode2  year month yearmon troop
   <chr>   <chr>                   <dbl>         <dbl> <dbl> <dbl>   <dbl> <dbl>
 1 BONUCA  Central African…          482            NA  2000     2   2000.   185
 2 LBB     Unknown                  -999            NA  1997     4   1997.    23
 3 LBB     Unknown                  -999            NA  1997     5   1997.    23
 4 MINURCA Central African…          482            NA  1998     4   1998.  1218
 5 MINURCA Central African…          482            NA  1998     5   1998.  1221
 6 MINURCA Central African…          482            NA  1998     6   1998.  1362
 7 MINURCA Central African…          482            NA  1998     7   1998.  1345
 8 MINURCA Central African…          482            NA  1998     8   1998.  1345
 9 MINURCA Central African…          482            NA  1998     9   1998.  1345
10 MINURCA Central African…          482            NA  1998    10   1998.  1347
# ℹ 3,676 more rows
# ℹ 4 more variables: police <dbl>, militaryobservers <dbl>, total <dbl>,
#   total2 <dbl>

# every row where deaths_civilians index is  EQUAL TO or ABOVE 10
unpko %>% 
  filter(troop >= 10)

# A tibble: 3,690 × 12
   mission missioncountry   missionccode missionccode2  year month yearmon troop
   <chr>   <chr>                   <dbl>         <dbl> <dbl> <dbl>   <dbl> <dbl>
 1 BONUCA  Central African…          482            NA  2000     2   2000.   185
 2 LBB     Unknown                  -999            NA  1997     4   1997.    23
 3 LBB     Unknown                  -999            NA  1997     5   1997.    23
 4 MINURCA Central African…          482            NA  1998     4   1998.  1218
 5 MINURCA Central African…          482            NA  1998     5   1998.  1221
 6 MINURCA Central African…          482            NA  1998     6   1998.  1362
 7 MINURCA Central African…          482            NA  1998     7   1998.  1345
 8 MINURCA Central African…          482            NA  1998     8   1998.  1345
 9 MINURCA Central African…          482            NA  1998     9   1998.  1345
10 MINURCA Central African…          482            NA  1998    10   1998.  1347
# ℹ 3,680 more rows
# ℹ 4 more variables: police <dbl>, militaryobservers <dbl>, total <dbl>,
#   total2 <dbl>
Furthermore, you can combine multiple criteria using operators that make comparisons:

| for “or”

& for “and” (or just ,)

! for “not”

unpko %>%
  filter(
    year > 2005,
    missioncountry == "Kosovo"
  )

# A tibble: 143 × 12
   mission missioncountry missionccode missionccode2  year month yearmon troop
   <chr>   <chr>                 <dbl>         <dbl> <dbl> <dbl>   <dbl> <dbl>
 1 UNMIK   Kosovo                  347            NA  2008     2   2008.     0
 2 UNMIK   Kosovo                  347            NA  2008     3   2008.     0
 3 UNMIK   Kosovo                  347            NA  2008     4   2008.     0
 4 UNMIK   Kosovo                  347            NA  2008     5   2008.     0
 5 UNMIK   Kosovo                  347            NA  2008     6   2008.     0
 6 UNMIK   Kosovo                  347            NA  2008     7   2008.     0
 7 UNMIK   Kosovo                  347            NA  2008     8   2008.     0
 8 UNMIK   Kosovo                  347            NA  2008     9   2008.     0
 9 UNMIK   Kosovo                  347            NA  2008    10   2008.     0
10 UNMIK   Kosovo                  347            NA  2008    11   2008.     0
# ℹ 133 more rows
# ℹ 4 more variables: police <dbl>, militaryobservers <dbl>, total <dbl>,
#   total2 <dbl>
…
arrange rows

arrange() allows us to sort/reorder a tibble’s (dataframe) rows according to the values of a specific variable. Unlike filter() or select(), arrange() does not remove any rows or columns from the tibble. Example:

unpko %>%
  arrange(total) 

# A tibble: 6,175 × 12
   mission  missioncountry  missionccode missionccode2  year month yearmon troop
   <chr>    <chr>                  <dbl>         <dbl> <dbl> <dbl>   <dbl> <dbl>
 1 MINURSO  Morocco                  600            NA  1992     5   1992.  -999
 2 MINURSO  Morocco                  600            NA  1992     6   1992.  -999
 3 MINURSO  Morocco                  600            NA  1992     7   1992.  -999
 4 MINURSO  Morocco                  600            NA  2014     9   2014.  -999
 5 MINURSO  Morocco                  600            NA  2017     7   2017.  -999
 6 MINUSCA  Central Africa…          482            NA  2014     9   2014.  -999
 7 MINUSCA  Central Africa…          482            NA  2017     7   2017.  -999
 8 MINUSMA  Mali                     432            NA  2014     9   2014.  -999
 9 MINUSMA  Mali                     432            NA  2017     7   2017.  -999
10 MINUSTAH Haiti                     41            NA  2014     9   2014.  -999
# ℹ 6,165 more rows
# ℹ 4 more variables: police <dbl>, militaryobservers <dbl>, total <dbl>,
#   total2 <dbl>

unpko %>%
  arrange(desc(total)) 

# A tibble: 6,175 × 12
   mission  missioncountry  missionccode missionccode2  year month yearmon troop
   <chr>    <chr>                  <dbl>         <dbl> <dbl> <dbl>   <dbl> <dbl>
 1 UNPROFOR Croatia-Bosnia…          344           346  1994     9   1994. 38614
 2 UNPROFOR Croatia-Bosnia…          344           346  1994    10   1994. 38467
 3 UNPROFOR Croatia-Bosnia…          344           346  1994    12   1994. 38332
 4 UNPROFOR Croatia-Bosnia…          344           346  1995     2   1995. 38289
 5 UNPROFOR Croatia-Bosnia…          344           346  1995     1   1995. 38207
 6 UNPROFOR Croatia-Bosnia…          344           346  1994    11   1994. 38130
 7 UNPROFOR Bosnia-Herzego…          346            NA  1995     3   1995. 37421
 8 UNPROFOR Croatia-Bosnia…          344           346  1994     8   1994. 37442
 9 UNPROFOR Croatia-Bosnia…          344           346  1994     7   1994. 36430
10 UNPROFOR Croatia-Bosnia…          344           346  1994     6   1994. 35128
# ℹ 6,165 more rows
# ℹ 4 more variables: police <dbl>, militaryobservers <dbl>, total <dbl>,
#   total2 <dbl>

unpko %>%
  arrange(-total) 

# A tibble: 6,175 × 12
   mission  missioncountry  missionccode missionccode2  year month yearmon troop
   <chr>    <chr>                  <dbl>         <dbl> <dbl> <dbl>   <dbl> <dbl>
 1 UNPROFOR Croatia-Bosnia…          344           346  1994     9   1994. 38614
 2 UNPROFOR Croatia-Bosnia…          344           346  1994    10   1994. 38467
 3 UNPROFOR Croatia-Bosnia…          344           346  1994    12   1994. 38332
 4 UNPROFOR Croatia-Bosnia…          344           346  1995     2   1995. 38289
 5 UNPROFOR Croatia-Bosnia…          344           346  1995     1   1995. 38207
 6 UNPROFOR Croatia-Bosnia…          344           346  1994    11   1994. 38130
 7 UNPROFOR Bosnia-Herzego…          346            NA  1995     3   1995. 37421
 8 UNPROFOR Croatia-Bosnia…          344           346  1994     8   1994. 37442
 9 UNPROFOR Croatia-Bosnia…          344           346  1994     7   1994. 36430
10 UNPROFOR Croatia-Bosnia…          344           346  1994     6   1994. 35128
# ℹ 6,165 more rows
# ℹ 4 more variables: police <dbl>, militaryobservers <dbl>, total <dbl>,
#   total2 <dbl>

distinct rows

distinct() finds all the unique rows in a dataset, so in a technical sense, it primarily operates on the rows. Most of the time, however, you’ll want the distinct combination of some variables, so you can also optionally supply column names:

unpko %>%
  distinct(mission) 

# A tibble: 82 × 1
   mission  
   <chr>    
 1 BINUB    
 2 BINUH    
 3 BNUB     
 4 BONUCA   
 5 IPTF     
 6 LBB      
 7 MICAH    
 8 MINUCI   
 9 MINUGUA  
10 MINUJUSTH
# ℹ 72 more rows

unpko %>%
  distinct(mission, year) 

# A tibble: 570 × 2
   mission  year
   <chr>   <dbl>
 1 BINUB    2007
 2 BINUB    2008
 3 BINUB    2009
 4 BINUB    2010
 5 BINUH    2019
 6 BNUB     2011
 7 BNUB     2012
 8 BONUCA   2000
 9 IPTF     1996
10 LBB      1997
# ℹ 560 more rows

The idea is similar to count() function you saw before, but distinct() does not provide us the infomratino aobut the sizes of groups.

select variables

This is used for subsetting variables (columns, not rows), deleting columns, and re-arranging columns.

unpko %>%
  select(mission, total) 

# A tibble: 6,175 × 2
   mission total
   <chr>   <dbl>
 1 BINUB      11
 2 BINUB      11
 3 BINUB      14
 4 BINUB      15
 5 BINUB      15
 6 BINUB      15
 7 BINUB      15
 8 BINUB      18
 9 BINUB      18
10 BINUB      20
# ℹ 6,165 more rows

unpko %>%
  select(-mission, -total) 

# A tibble: 6,175 × 10
   missioncountry missionccode missionccode2  year month yearmon troop police
   <chr>                 <dbl>         <dbl> <dbl> <dbl>   <dbl> <dbl>  <dbl>
 1 Burundi                 516            NA  2007     1   2007.     0     11
 2 Burundi                 516            NA  2007     2   2007.     0     11
 3 Burundi                 516            NA  2007     3   2007.     0     11
 4 Burundi                 516            NA  2007     4   2007.     0     11
 5 Burundi                 516            NA  2007     5   2007.     0     11
 6 Burundi                 516            NA  2007     6   2007.     0     11
 7 Burundi                 516            NA  2007     7   2007.     0     11
 8 Burundi                 516            NA  2007     8   2007.     0     12
 9 Burundi                 516            NA  2007     9   2007.     0     12
10 Burundi                 516            NA  2007    10   2007.     0     12
# ℹ 6,165 more rows
# ℹ 2 more variables: militaryobservers <dbl>, total2 <dbl>

# change the order of columns in dataset 
unpko %>%
  relocate(mission, total) 

# A tibble: 6,175 × 12
   mission total missioncountry missionccode missionccode2  year month yearmon
   <chr>   <dbl> <chr>                 <dbl>         <dbl> <dbl> <dbl>   <dbl>
 1 BINUB      11 Burundi                 516            NA  2007     1   2007.
 2 BINUB      11 Burundi                 516            NA  2007     2   2007.
 3 BINUB      14 Burundi                 516            NA  2007     3   2007.
 4 BINUB      15 Burundi                 516            NA  2007     4   2007.
 5 BINUB      15 Burundi                 516            NA  2007     5   2007.
 6 BINUB      15 Burundi                 516            NA  2007     6   2007.
 7 BINUB      15 Burundi                 516            NA  2007     7   2007.
 8 BINUB      18 Burundi                 516            NA  2007     8   2007.
 9 BINUB      18 Burundi                 516            NA  2007     9   2007.
10 BINUB      20 Burundi                 516            NA  2007    10   2007.
# ℹ 6,165 more rows
# ℹ 4 more variables: troop <dbl>, police <dbl>, militaryobservers <dbl>,
#   total2 <dbl>

# change the order of columns in dataset 
unpko %>%
  select(mission, total, everything())

# A tibble: 6,175 × 12
   mission total missioncountry missionccode missionccode2  year month yearmon
   <chr>   <dbl> <chr>                 <dbl>         <dbl> <dbl> <dbl>   <dbl>
 1 BINUB      11 Burundi                 516            NA  2007     1   2007.
 2 BINUB      11 Burundi                 516            NA  2007     2   2007.
 3 BINUB      14 Burundi                 516            NA  2007     3   2007.
 4 BINUB      15 Burundi                 516            NA  2007     4   2007.
 5 BINUB      15 Burundi                 516            NA  2007     5   2007.
 6 BINUB      15 Burundi                 516            NA  2007     6   2007.
 7 BINUB      15 Burundi                 516            NA  2007     7   2007.
 8 BINUB      18 Burundi                 516            NA  2007     8   2007.
 9 BINUB      18 Burundi                 516            NA  2007     9   2007.
10 BINUB      20 Burundi                 516            NA  2007    10   2007.
# ℹ 6,165 more rows
# ℹ 4 more variables: troop <dbl>, police <dbl>, militaryobservers <dbl>,
#   total2 <dbl>

# only select variables starting with "y"
unpko %>% 
  select(starts_with("mission"))

# A tibble: 6,175 × 4
   mission missioncountry missionccode missionccode2
   <chr>   <chr>                 <dbl>         <dbl>
 1 BINUB   Burundi                 516            NA
 2 BINUB   Burundi                 516            NA
 3 BINUB   Burundi                 516            NA
 4 BINUB   Burundi                 516            NA
 5 BINUB   Burundi                 516            NA
 6 BINUB   Burundi                 516            NA
 7 BINUB   Burundi                 516            NA
 8 BINUB   Burundi                 516            NA
 9 BINUB   Burundi                 516            NA
10 BINUB   Burundi                 516            NA
# ℹ 6,165 more rows

mutate variables

mutate() takes existing columns and creates a new column or overwrites the existing one.

unpko <- unpko %>%
  dplyr::mutate(armed_forces = troop + police,
                yearmon = paste0(year, "_", month))

unpko %>% 
  select(armed_forces, missioncountry) %>% 
  mutate(armed_forces = armed_forces / 100)

# A tibble: 6,175 × 2
   armed_forces missioncountry
          <dbl> <chr>         
 1         0.11 Burundi       
 2         0.11 Burundi       
 3         0.11 Burundi       
 4         0.11 Burundi       
 5         0.11 Burundi       
 6         0.11 Burundi       
 7         0.11 Burundi       
 8         0.12 Burundi       
 9         0.12 Burundi       
10         0.12 Burundi       
# ℹ 6,165 more rows

Here is how we can remove remove variables with mutate() (although the same can be done with select() command):

unpko %>% 
  select(missioncountry, armed_forces) %>% 
  mutate(armed_forces = NULL)

# A tibble: 6,175 × 1
   missioncountry
   <chr>         
 1 Burundi       
 2 Burundi       
 3 Burundi       
 4 Burundi       
 5 Burundi       
 6 Burundi       
 7 Burundi       
 8 Burundi       
 9 Burundi       
10 Burundi       
# ℹ 6,165 more rows
…
# A tibble: 1 × 2
  mean_armed_forces sd_armed_forces
              <dbl>           <dbl>
1             3454.           5767.

We can also let R perform operations within subgroups, rather than on the entire dataset:

unpko %>% 
  group_by(mission) %>%
  summarise(
    median_armed_forces = median(armed_forces, na.rm = T),
    max_armed_forces = max(armed_forces, na.rm = T) 
  )

# A tibble: 82 × 3
   mission   median_armed_forces max_armed_forces
   <chr>                   <dbl>            <dbl>
 1 BINUB                    10.5               12
 2 BINUH                    11                 11
 3 BNUB                      0                  1
 4 BONUCA                    3                188
 5 IPTF                   1197               1485
 6 LBB                      23                 23
 7 MICAH                     1                  1
 8 MINUCI                    0                  0
 9 MINUGUA                  10.5               52
10 MINUJUSTH              1190               1280
# ℹ 72 more rows

# how many observations (months) are there per mission 
unpko %>% # take dataset
  group_by(mission) %>% # group by mission
  summarise(count = n())

# A tibble: 82 × 2
   mission   count
   <chr>     <int>
 1 BINUB        48
 2 BINUH         3
 3 BNUB         24
 4 BONUCA        7
 5 IPTF          5
 6 LBB           2
 7 MICAH         2
 8 MINUCI        9
 9 MINUGUA      42
10 MINUJUSTH    24
# ℹ 72 more rows
…
